[api-updater (non-obsolete-error-filter)] 13.07.2021 16:17:34 : Starting G:/Unity/2020.3.13f1/Editor/Data/Tools/ScriptUpdater/APIUpdater.NonObsoleteApiUpdaterDetector.exe
[api-updater (non-obsolete-error-filter)] 
----------------------------------
jit/startup time      : 315,129ms
moved types parse time: 103ms
candidates parse time : 2ms
C# parse time         : 401ms
candidates check time : 53ms
console write time    : 1ms

[api-updater (non-obsolete-error-filter)] 13.07.2021 16:18:47 : Starting G:/Unity/2020.3.13f1/Editor/Data/Tools/ScriptUpdater/APIUpdater.NonObsoleteApiUpdaterDetector.exe
[api-updater (non-obsolete-error-filter)] 
----------------------------------
jit/startup time      : 80,001ms
moved types parse time: 96ms
candidates parse time : 2ms
C# parse time         : 292ms
candidates check time : 47ms
console write time    : 0ms

[api-updater (non-obsolete-error-filter)] 18.07.2021 19:07:50 : Starting G:/Unity/2020.3.13f1/Editor/Data/Tools/ScriptUpdater/APIUpdater.NonObsoleteApiUpdaterDetector.exe
[api-updater (non-obsolete-error-filter)] 
----------------------------------
jit/startup time      : 417,4955ms
moved types parse time: 111ms
candidates parse time : 2ms
C# parse time         : 441ms
candidates check time : 59ms
console write time    : 1ms

[api-updater (non-obsolete-error-filter)] 21.07.2021 15:07:25 : Starting G:/Unity/2020.3.13f1/Editor/Data/Tools/ScriptUpdater/APIUpdater.NonObsoleteApiUpdaterDetector.exe
[api-updater (non-obsolete-error-filter)] 
----------------------------------
jit/startup time      : 368,1174ms
moved types parse time: 101ms
candidates parse time : 2ms
C# parse time         : 449ms
candidates check time : 75ms
console write time    : 2ms

[api-updater (non-obsolete-error-filter)] 21.07.2021 16:05:37 : Starting G:/Unity/2020.3.13f1/Editor/Data/Tools/ScriptUpdater/APIUpdater.NonObsoleteApiUpdaterDetector.exe
[api-updater (non-obsolete-error-filter)] 
----------------------------------
jit/startup time      : 81,0639ms
moved types parse time: 85ms
candidates parse time : 1ms
C# parse time         : 322ms
candidates check time : 70ms
console write time    : 0ms

[api-updater (non-obsolete-error-filter)] 22.07.2021 17:09:37 : Starting G:/Unity/2020.3.13f1/Editor/Data/Tools/ScriptUpdater/APIUpdater.NonObsoleteApiUpdaterDetector.exe
[api-updater (non-obsolete-error-filter)] Exception caught while loading types from G:\Unity\Projects\New Unity Project\Library\ScriptAssemblies\Unity.TextMeshPro.Editor.dll (some types may not be loaded)
	Exception of type 'System.Reflection.ReflectionTypeLoadException' was thrown.
	  at (wrapper managed-to-native) System.Reflection.Assembly.GetTypes(System.Reflection.Assembly,bool)
  at System.Reflection.Assembly.GetTypes () [0x00000] in <695d1cc93cca45069c528c15c9fdd749>:0 
  at APIUpdater.NonObsoleteApiUpdaterDetector.ExtraInfoParser+<LoadTypesWithMovedFromAttributeAsync>d__3.MoveNext () [0x000c8] in <68bff7873e0e4aa69a14dfc30bebbe3e>:0 
	Could not load file or assembly 'UnityEditor.CoreModule, Version=0.0.0.0, Culture=neutral, PublicKeyToken=null' or one of its dependencies.

[api-updater (non-obsolete-error-filter)] 
----------------------------------
jit/startup time      : 326,0625ms
moved types parse time: 113ms
candidates parse time : 2ms
C# parse time         : 468ms
candidates check time : 75ms
console write time    : 2ms

[api-updater (non-obsolete-error-filter)] 25.07.2021 10:52:12 : Starting G:/Unity/2020.3.13f1/Editor/Data/Tools/ScriptUpdater/APIUpdater.NonObsoleteApiUpdaterDetector.exe
[api-updater (non-obsolete-error-filter)] 
----------------------------------
jit/startup time      : 342,6691ms
moved types parse time: 105ms
candidates parse time : 2ms
C# parse time         : 454ms
candidates check time : 66ms
console write time    : 2ms

[api-updater (non-obsolete-error-filter)] 25.07.2021 10:56:07 : Starting G:/Unity/2020.3.13f1/Editor/Data/Tools/ScriptUpdater/APIUpdater.NonObsoleteApiUpdaterDetector.exe
[api-updater (non-obsolete-error-filter)] 
----------------------------------
jit/startup time      : 82,0526ms
moved types parse time: 85ms
candidates parse time : 1ms
C# parse time         : 332ms
candidates check time : 54ms
console write time    : 0ms

[api-updater (non-obsolete-error-filter)] 25.07.2021 11:10:13 : Starting G:/Unity/2020.3.13f1/Editor/Data/Tools/ScriptUpdater/APIUpdater.NonObsoleteApiUpdaterDetector.exe
[api-updater (non-obsolete-error-filter)] 
----------------------------------
jit/startup time      : 84,0198ms
moved types parse time: 88ms
candidates parse time : 1ms
C# parse time         : 333ms
candidates check time : 65ms
console write time    : 0ms

[api-updater (non-obsolete-error-filter)] 25.07.2021 11:31:24 : Starting G:/Unity/2020.3.13f1/Editor/Data/Tools/ScriptUpdater/APIUpdater.NonObsoleteApiUpdaterDetector.exe
[api-updater (non-obsolete-error-filter)] 
----------------------------------
jit/startup time      : 85,0535ms
moved types parse time: 88ms
candidates parse time : 1ms
C# parse time         : 333ms
candidates check time : 67ms
console write time    : 0ms

[api-updater (non-obsolete-error-filter)] 25.07.2021 11:34:31 : Starting G:/Unity/2020.3.13f1/Editor/Data/Tools/ScriptUpdater/APIUpdater.NonObsoleteApiUpdaterDetector.exe
[api-updater (non-obsolete-error-filter)] 
----------------------------------
jit/startup time      : 99,0523ms
moved types parse time: 99ms
candidates parse time : 1ms
C# parse time         : 331ms
candidates check time : 64ms
console write time    : 0ms

[api-updater (non-obsolete-error-filter)] 25.07.2021 11:35:41 : Starting G:/Unity/2020.3.13f1/Editor/Data/Tools/ScriptUpdater/APIUpdater.NonObsoleteApiUpdaterDetector.exe
[api-updater (non-obsolete-error-filter)] 
----------------------------------
jit/startup time      : 88,0518ms
moved types parse time: 87ms
candidates parse time : 1ms
C# parse time         : 333ms
candidates check time : 67ms
console write time    : 1ms

[api-updater (non-obsolete-error-filter)] 25.07.2021 11:37:04 : Starting G:/Unity/2020.3.13f1/Editor/Data/Tools/ScriptUpdater/APIUpdater.NonObsoleteApiUpdaterDetector.exe
[api-updater (non-obsolete-error-filter)] 
----------------------------------
jit/startup time      : 119,0098ms
moved types parse time: 92ms
candidates parse time : 2ms
C# parse time         : 331ms
candidates check time : 67ms
console write time    : 0ms

